{
  "label": "Public Cloud",
  "position": 2.2,
  "link": {
    "type": "generated-index",
    "description": "OVHcloud - Public Cloud : utilisation des services comme les instances, le loadbalancer, Kubernetes"
  }
}
